[
    {
      "name": "Motorola",
      "cost": 404.99,
      "image":
        "https://scr.wfcdn.de/22629/Motorola-Moto-G9-Plus-1599656737-0-0.jpg"
    },
    {
      "name": "Iphone",
      "cost": 1244.99,
      "image":
        "https://store.storeimages.cdn-apple.com/4668/as-images.apple.com/is/iphone-12-pro-blue-hero?wid=940&hei=1112&fmt=png-alpha&.v=1604021661000"
    },
    {
      "name": "Samsung",
      "cost": 444.99,
      "image":
        "https://images.samsung.com/is/image/samsung/in-galaxy-m51-m515fz-6gb-sm-m515fzbdins--301211700?scl=1&fmt=png-alpha"
    },
    {
      "name": "Nokia",
      "cost": 244.99,
      "image":
        "https://www.moneyforyourphone.com/wp-content/uploads/2019/12/Untitled-design-15.png"
    },
    {
      "name": "Motorola",
      "cost": 404.99,
      "image":
        "https://scr.wfcdn.de/22629/Motorola-Moto-G9-Plus-1599656737-0-0.jpg"
    },
    {
      "name": "Iphone",
      "cost": 1244.99,
      "image":
        "https://store.storeimages.cdn-apple.com/4668/as-images.apple.com/is/iphone-12-pro-blue-hero?wid=940&hei=1112&fmt=png-alpha&.v=1604021661000"
    },
    {
      "name": "Samsung",
      "cost": 444.99,
      "image":
        "https://images.samsung.com/is/image/samsung/in-galaxy-m51-m515fz-6gb-sm-m515fzbdins--301211700?scl=1&fmt=png-alpha"
    },
    {
      "name": "Nokia",
      "cost": 244.99,
      "image":
        "https://www.moneyforyourphone.com/wp-content/uploads/2019/12/Untitled-design-15.png"
    },
    {
      "name": "Motorola",
      "cost": 404.99,
      "image":
        "https://scr.wfcdn.de/22629/Motorola-Moto-G9-Plus-1599656737-0-0.jpg"
    },
    {
      "name": "Iphone",
      "cost": 1244.99,
      "image":
        "https://store.storeimages.cdn-apple.com/4668/as-images.apple.com/is/iphone-12-pro-blue-hero?wid=940&hei=1112&fmt=png-alpha&.v=1604021661000"
    },
    {
      "name": "Samsung",
      "cost": 444.99,
      "image":
        "https://images.samsung.com/is/image/samsung/in-galaxy-m51-m515fz-6gb-sm-m515fzbdins--301211700?scl=1&fmt=png-alpha"
    },
    {
      "name": "Nokia",
      "cost": 244.99,
      "image":
        "https://www.moneyforyourphone.com/wp-content/uploads/2019/12/Untitled-design-15.png"
    },
    {
      "name": "Motorola",
      "cost": 404.99,
      "image":
        "https://scr.wfcdn.de/22629/Motorola-Moto-G9-Plus-1599656737-0-0.jpg"
    },
    {
      "name": "Iphone",
      "cost": 1244.99,
      "image":
        "https://store.storeimages.cdn-apple.com/4668/as-images.apple.com/is/iphone-12-pro-blue-hero?wid=940&hei=1112&fmt=png-alpha&.v=1604021661000"
    },
    {
      "name": "Samsung",
      "cost": 444.99,
      "image":
        "https://images.samsung.com/is/image/samsung/in-galaxy-m51-m515fz-6gb-sm-m515fzbdins--301211700?scl=1&fmt=png-alpha"
    },
    {
      "name": "Nokia",
      "cost": 244.99,
      "image":
        "https://www.moneyforyourphone.com/wp-content/uploads/2019/12/Untitled-design-15.png"
    }

  ]

